…
The start date for the entire data set is from Jan 22, 2020. However showing by state we can see the discrepancy, that most of the states did not start recording data until after March of 2020. 



```r
covidclean.df %>%
  dplyr::select(date, state) %>% 
  group_by(state) %>% 
  summarise(
     first_date = min(date), total_tests = n()
  ) %>% .[order(.$first_date,decreasing = T),]
```

```
## # A tibble: 51 x 3
##    state first_date total_tests
##    <fct> <date>           <int>
##  1 AL    2020-03-07         274
##  2 CT    2020-03-07         274
##  3 ID    2020-03-07         274
##  4 LA    2020-03-07         274
##  5 ME    2020-03-07         274
##  6 MO    2020-03-07         274
##  7 MS    2020-03-07         274
##  8 MT    2020-03-07         274
##  9 ND    2020-03-07         274
## 10 OK    2020-03-07         274
## # ... with 41 more rows
```
…
```r
covidclean.df[ 
  covidclean.df$total - (covidclean.df$positive + covidclean.df$negative) != 0
  , c('state', 'date', 'positive', 'negative', 'death' ) ] %>% 
  .[order(.$state, decreasing = F),] %>% count(state)
```

```
## Warning: Factor `state` contains implicit NA, consider using
## `forcats::fct_explicit_na`
```

```
## # A tibble: 33 x 2
##    state     n
##    <fct> <int>
##  1 AK        1
##  2 AL        3
##  3 AR       13
##  4 AZ       21
##  5 CA       28
##  6 CO        1
##  7 CT        1
##  8 DC       18
##  9 DE        8
## 10 FL      266
## # ... with 23 more rows
```
…
